A Fully Bayesian Analysis of Broman's Socks
…
Posterior Grid

# A tibble: 10,201 x 8
# Rowwise: 
     rho sigma log_likelihood log_prior log_posterior likelihood
   <int> <int>          <dbl>     <dbl>         <dbl>      <dbl>
 1     0     0           -Inf     -7.43          -Inf          0
 2     0     1           -Inf     -7.14          -Inf          0
 3     0     2           -Inf     -7.14          -Inf          0
 4     0     3           -Inf     -7.26          -Inf          0
 5     0     4           -Inf     -7.44          -Inf          0
 6     0     5           -Inf     -7.66          -Inf          0
 7     0     6           -Inf     -7.91          -Inf          0
 8     0     7           -Inf     -8.19          -Inf          0
 9     0     8           -Inf     -8.47          -Inf          0
10     0     9           -Inf     -8.77          -Inf          0
#  with 10,191 more rows, and 2 more variables: prior <dbl>,
#   posterior <dbl>
…
